<svg width="315" height="248" viewBox="0 0 315 248" fill="none" xmlns="http://www.w3.org/2000/svg">
<path d="M298.104 194.007L314.304 214.007L277.804 247.707C277.804 247.707 273.504 243.007 276.304 238.207C277.704 235.707 279.004 231.307 279.304 226.507C279.304 226.207 279.304 225.807 279.404 225.507C279.504 224.307 279.504 223.107 279.404 221.907C279.404 221.607 279.304 221.207 279.304 220.907C279.004 218.207 278.304 215.607 277.104 213.407L298.104 194.007Z" fill="#030047"/>
<path d="M288.804 220.607C285.704 221.007 282.504 221.507 279.404 222.007C279.404 221.707 279.304 221.307 279.304 221.007C282.404 220.607 285.504 220.107 288.604 219.707C289.204 219.607 289.404 220.507 288.804 220.607Z" fill="white"/>
<path d="M287.904 226.207C285.104 226.307 282.204 226.407 279.404 226.507C279.404 226.207 279.404 225.807 279.504 225.507C282.304 225.407 285.204 225.307 288.004 225.207C288.604 225.207 288.504 226.207 287.904 226.207Z" fill="white"/>
<path d="M228.204 219.007L226.504 244.707H176.804C176.804 244.707 176.804 238.407 182.104 236.707C184.804 235.907 188.804 233.407 192.304 230.207C192.504 230.007 192.804 229.807 193.004 229.507C193.804 228.707 194.704 227.807 195.404 226.907C195.604 226.607 195.804 226.407 196.004 226.107C197.604 223.907 198.904 221.507 199.404 219.107H228.204V219.007Z" fill="#030047"/>
<path d="M281.304 159.007C276.204 141.007 267.904 90.7072 267.904 90.7072L239.204 97.3071C238.404 94.4071 237.804 92.6072 237.804 92.6072L208.804 103.707C208.804 127.107 195.804 220.307 195.804 220.307L233.404 225.607C233.404 225.607 237.704 184.907 240.504 153.807C251.104 190.007 269.004 216.407 276.204 220.907L303.604 198.407C303.604 198.307 286.304 177.007 281.304 159.007Z" fill="white"/>
<path d="M234.104 226.407L194.904 220.907L195.004 220.207C195.104 219.307 208.004 126.707 208.004 103.707V103.207L238.204 91.6072L238.404 92.4072C238.404 92.4072 238.904 94.0071 239.604 96.5071L268.404 89.9072L268.504 90.7072C268.604 91.2072 276.904 141.207 281.904 159.007C286.904 176.607 304.004 197.807 304.104 198.007L304.604 198.607L276.204 221.907L275.704 221.607C268.804 217.407 251.704 192.707 240.804 157.807C238.004 188.007 234.104 225.407 234.004 225.807L234.104 226.407ZM196.604 219.607L232.704 224.607C233.304 218.807 237.104 182.007 239.704 153.607L240.104 149.707L241.204 153.507C251.704 189.207 268.904 214.807 276.104 219.807L302.504 198.107C299.704 194.507 285.004 175.407 280.404 159.107C275.704 142.507 268.204 97.9071 267.104 91.5071L238.504 98.0071L238.304 97.3071C237.804 95.5071 237.404 94.2072 237.204 93.4072L209.504 104.207C209.304 127.007 197.804 210.807 196.604 219.607Z" fill="#030047"/>
<path d="M260.004 98.3071C259.704 98.3071 259.404 98.1071 259.304 97.8071C258.904 96.9071 258.504 96.0072 258.104 95.1072C257.904 94.7072 258.104 94.3072 258.504 94.1072C258.904 93.9072 259.304 94.1071 259.504 94.5071C259.904 95.4071 260.304 96.3071 260.704 97.3071C260.904 97.7071 260.704 98.1071 260.304 98.3071C260.204 98.2071 260.104 98.3071 260.004 98.3071Z" fill="#030047"/>
<path d="M288.504 195.207C288.204 195.207 288.004 195.107 287.804 194.807C286.804 193.107 285.804 191.207 284.804 189.207C284.604 188.807 284.804 188.407 285.104 188.207C285.504 188.007 285.904 188.207 286.104 188.507C287.104 190.507 288.104 192.307 289.104 194.007C289.304 194.407 289.204 194.807 288.804 195.007C288.704 195.107 288.604 195.207 288.504 195.207ZM282.704 183.907C282.404 183.907 282.104 183.707 282.004 183.507C281.104 181.607 280.304 179.707 279.404 177.707C279.204 177.307 279.404 176.907 279.804 176.707C280.204 176.507 280.604 176.707 280.804 177.107C281.604 179.107 282.504 181.007 283.304 182.907C283.504 183.307 283.304 183.707 282.904 183.907C282.904 183.807 282.804 183.907 282.704 183.907ZM277.804 172.207C277.504 172.207 277.204 172.007 277.104 171.707C276.404 169.807 275.804 167.807 275.104 165.607C275.004 165.207 275.204 164.807 275.604 164.707C276.004 164.607 276.404 164.807 276.504 165.207C277.104 167.307 277.804 169.407 278.404 171.207C278.504 171.607 278.304 172.007 278.004 172.207C278.004 172.107 277.904 172.207 277.804 172.207ZM274.304 160.007C274.004 160.007 273.704 159.807 273.604 159.407C273.104 157.507 272.704 155.407 272.204 153.207C272.104 152.807 272.404 152.407 272.804 152.307C273.204 152.207 273.604 152.507 273.704 152.907C274.204 155.107 274.604 157.207 275.104 159.107C275.204 159.507 274.904 159.907 274.504 160.007C274.404 160.007 274.304 160.007 274.304 160.007ZM271.704 147.507C271.304 147.507 271.004 147.207 271.004 146.907C270.604 144.807 270.204 142.807 269.904 140.707C269.804 140.307 270.104 139.907 270.504 139.807C270.904 139.707 271.304 140.007 271.404 140.407C271.804 142.507 272.104 144.607 272.504 146.607C272.604 147.007 272.304 147.407 271.904 147.507C271.804 147.507 271.804 147.507 271.704 147.507ZM269.504 135.107C269.104 135.107 268.804 134.807 268.804 134.507C268.404 132.407 268.004 130.307 267.704 128.307C267.604 127.907 267.904 127.507 268.304 127.407C268.704 127.307 269.104 127.607 269.204 128.007C269.604 130.107 270.004 132.207 270.304 134.307C270.404 134.707 270.104 135.107 269.704 135.207C269.504 135.007 269.504 135.107 269.504 135.107ZM267.104 122.607C266.804 122.607 266.404 122.407 266.404 122.007C265.904 119.807 265.504 117.807 265.004 115.807C264.904 115.407 265.204 115.007 265.604 114.907C266.004 114.807 266.404 115.107 266.504 115.507C267.004 117.507 267.404 119.507 267.904 121.707C268.004 122.107 267.704 122.507 267.304 122.607C267.204 122.607 267.104 122.607 267.104 122.607ZM264.104 110.307C263.804 110.307 263.504 110.107 263.404 109.807C262.804 107.707 262.204 105.707 261.504 103.807C261.404 103.407 261.604 103.007 262.004 102.807C262.404 102.707 262.804 102.907 263.004 103.307C263.604 105.207 264.304 107.307 264.904 109.407C265.004 109.807 264.804 110.207 264.404 110.307C264.304 110.207 264.204 110.307 264.104 110.307Z" fill="#030047"/>
<path d="M293.604 202.907C293.404 202.907 293.204 202.807 293.004 202.707C293.004 202.707 292.304 201.907 291.104 200.207C290.904 199.907 290.904 199.407 291.304 199.207C291.604 199.007 292.104 199.007 292.304 199.407C293.404 201.007 294.004 201.707 294.104 201.707C294.404 202.007 294.304 202.507 294.004 202.807C294.004 202.807 293.804 202.907 293.604 202.907Z" fill="#030047"/>
<path d="M203.304 232.307C200.704 230.507 198.104 228.707 195.504 226.907C195.704 226.607 195.904 226.407 196.104 226.107C198.704 227.907 201.304 229.707 203.804 231.407C204.304 231.807 203.804 232.607 203.304 232.307Z" fill="white"/>
<path d="M198.804 235.707C196.704 233.807 194.504 232.007 192.304 230.107C192.504 229.907 192.804 229.707 193.004 229.407C195.104 231.307 197.304 233.107 199.504 234.907C200.004 235.507 199.304 236.207 198.804 235.707Z" fill="white"/>
<path d="M239.804 147.007C239.504 147.007 239.204 146.807 239.104 146.507C237.004 141.407 234.604 119.807 234.104 115.907C233.104 115.807 230.604 115.407 226.104 114.507C225.704 114.407 225.404 114.007 225.504 113.607C225.604 113.207 226.004 112.907 226.404 113.007C232.504 114.207 234.804 114.507 234.804 114.507L235.404 114.607L235.504 115.207C235.504 115.507 238.304 140.707 240.404 146.007C240.604 146.407 240.404 146.807 240.004 147.007C240.004 147.007 239.904 147.007 239.804 147.007Z" fill="#030047"/>
<path d="M102.004 80.5071C101.704 80.5071 101.404 80.3071 101.304 80.0071L96.4038 68.1072C96.2038 67.7072 96.4038 67.3072 96.8038 67.1072C97.2038 66.9072 97.6038 67.1071 97.8038 67.5071L102.704 79.4071C102.904 79.8071 102.704 80.2071 102.304 80.4071C102.204 80.5071 102.104 80.5071 102.004 80.5071Z" fill="#030047"/>
<path d="M111.604 78.5071C111.204 78.5071 110.904 78.2071 110.904 77.8071L109.604 67.9071C109.504 67.5071 109.804 67.1072 110.204 67.1072C110.604 67.0072 111.004 67.3071 111.004 67.7071L112.304 77.6072C112.404 78.1072 112.104 78.4071 111.604 78.5071Z" fill="#030047"/>
<path d="M122.904 212.807C122.404 212.807 122.104 212.407 122.104 212.007L123.204 194.707C123.204 194.307 123.604 194.007 124.004 194.007C124.404 194.007 124.704 194.407 124.704 194.807L123.604 212.107C123.704 212.507 123.304 212.807 122.904 212.807Z" fill="#030047"/>
<path d="M144.104 204.107C143.804 204.107 143.604 204.007 143.404 203.707L137.704 193.607C137.504 193.207 137.604 192.807 138.004 192.607C138.404 192.407 138.804 192.507 139.004 192.907L144.704 203.007C144.904 203.407 144.804 203.807 144.404 204.007C144.304 204.107 144.204 204.107 144.104 204.107Z" fill="#030047"/>
<path d="M167.704 180.007H9.10375C1.70375 180.007 -1.99624 171.007 3.30376 165.807L50.5038 119.107C52.1038 117.607 54.1038 116.707 56.3038 116.707H214.904C222.304 116.707 226.004 125.707 220.704 130.907L173.504 177.607C172.004 179.207 169.904 180.007 167.704 180.007Z" fill="white"/>
<path d="M167.704 180.807H9.10374C5.40374 180.807 2.20375 178.707 0.703749 175.207C-0.696251 171.707 0.00374842 168.007 2.70375 165.307L49.9037 118.607C51.6037 116.907 53.9038 116.007 56.3038 116.007H214.904C218.604 116.007 221.804 118.107 223.304 121.607C224.704 125.107 224.004 128.807 221.304 131.507L174.104 178.207C172.404 179.907 170.104 180.807 167.704 180.807ZM56.3038 117.507C54.3038 117.507 52.4038 118.307 51.0037 119.707L3.80375 166.407C1.60375 168.607 0.90375 171.707 2.10375 174.607C3.30375 177.507 6.00374 179.307 9.10374 179.307H167.704C169.704 179.307 171.604 178.507 173.004 177.107L220.204 130.407C222.404 128.207 223.104 125.107 221.904 122.207C220.704 119.307 218.004 117.507 214.904 117.507H56.3038Z" fill="#030047"/>
<path d="M155.104 168.707H14.2037L63.7037 119.807H204.604L155.104 168.707Z" fill="#030047"/>
<path d="M77.6037 148.107H53.4037L61.9037 139.707H86.1037L77.6037 148.107Z" fill="white"/>
<path d="M104.004 163.807H82.6038L90.1038 156.307H111.604L104.004 163.807Z" fill="white"/>
<path d="M67.2038 162.707H49.8038L57.4038 155.307H74.7038L67.2038 162.707Z" fill="white"/>
<path d="M137.204 130.707C122.604 130.707 109.904 126.907 105.404 121.207C105.104 120.907 105.204 120.407 105.504 120.107C105.804 119.807 106.304 119.907 106.604 120.207C110.704 125.407 123.304 129.107 137.204 129.107C154.504 129.107 169.104 123.407 169.104 116.707C169.104 116.307 169.404 115.907 169.904 115.907C170.404 115.907 170.704 116.207 170.704 116.707C170.604 124.607 155.904 130.707 137.204 130.707Z" fill="#FBAD18"/>
<path d="M108.704 111.007C108.504 111.007 108.204 110.907 108.104 110.707C107.904 110.407 107.904 109.907 108.304 109.707C113.204 106.307 121.404 103.907 130.904 103.207C132.904 103.007 135.004 103.007 137.104 103.007C137.504 103.007 137.904 103.307 137.904 103.807C137.904 104.307 137.604 104.607 137.104 104.607C135.004 104.607 133.004 104.707 131.004 104.807C121.704 105.507 113.804 107.807 109.104 111.107C109.004 111.007 108.904 111.007 108.704 111.007Z" fill="#FBAD18"/>
<path d="M164.304 134.507C164.004 134.507 163.704 134.307 163.604 133.907C163.504 133.507 163.704 133.107 164.104 133.007C168.104 132.007 171.704 130.707 174.804 129.307C182.504 125.807 186.704 121.307 186.704 116.707C186.704 106.007 164.504 97.3071 137.204 97.3071C123.404 97.3071 110.504 99.5071 101.004 103.507C100.604 103.707 100.204 103.507 100.004 103.107C99.8038 102.707 100.004 102.307 100.404 102.107C110.104 98.0072 123.104 95.8071 137.104 95.8071C165.704 95.8071 188.104 105.007 188.104 116.707C188.104 121.907 183.604 126.807 175.304 130.607C172.104 132.107 168.404 133.307 164.404 134.407C164.404 134.507 164.304 134.507 164.304 134.507Z" fill="#FF3B30"/>
<path d="M137.204 137.707C134.304 137.707 131.504 137.607 128.704 137.407C104.104 135.707 86.2038 127.007 86.2038 116.707C86.2038 116.307 86.5038 115.907 87.0038 115.907C87.5038 115.907 87.8038 116.207 87.8038 116.707C87.8038 126.007 105.504 134.307 128.904 135.907C131.704 136.107 134.504 136.207 137.304 136.207C137.704 136.207 138.104 136.507 138.104 137.007C138.104 137.507 137.604 137.707 137.204 137.707Z" fill="#FF3B30"/>
<path d="M146.004 137.407C145.604 137.407 145.304 137.107 145.304 136.707C145.304 136.307 145.604 135.907 146.004 135.907C150.304 135.607 154.604 135.007 158.504 134.307C158.904 134.207 159.304 134.507 159.404 134.907C159.504 135.307 159.204 135.707 158.804 135.807C154.704 136.507 150.504 137.107 146.004 137.407C146.104 137.407 146.004 137.407 146.004 137.407Z" fill="#02D5B4"/>
<path d="M155.004 143.707C154.604 143.707 154.304 143.407 154.304 143.007C154.304 142.607 154.604 142.207 155.004 142.207C178.304 139.607 196.304 132.307 202.104 122.907C203.304 120.907 203.904 118.907 203.904 116.807C203.904 113.107 202.504 109.807 199.804 107.607C199.504 107.307 199.404 106.907 199.704 106.507C200.004 106.207 200.404 106.107 200.804 106.407C203.804 108.907 205.504 112.607 205.504 116.807C205.504 119.207 204.804 121.507 203.404 123.707C197.304 133.407 178.804 141.007 155.004 143.707C155.004 143.607 155.004 143.707 155.004 143.707Z" fill="#02D5B4"/>
<path d="M73.4038 108.707C73.2038 108.707 73.1038 108.607 72.9038 108.507C72.6038 108.207 72.6038 107.807 72.8038 107.407C77.4038 102.107 85.7038 97.6071 96.8038 94.2071C97.2038 94.1071 97.6038 94.3071 97.7038 94.7071C97.8038 95.1071 97.6038 95.5071 97.2038 95.6071C86.3038 98.8071 78.3038 103.207 73.9038 108.307C73.8038 108.607 73.6038 108.707 73.4038 108.707Z" fill="#02D5B4"/>
<path d="M99.8038 140.107C99.7038 140.107 99.7038 140.107 99.6038 140.107C80.4038 135.007 69.0038 126.307 69.0038 116.807C69.0038 116.407 69.3038 116.007 69.8038 116.007C70.3038 116.007 70.6038 116.307 70.6038 116.807C70.6038 125.507 81.6038 133.707 100.104 138.607C100.504 138.707 100.704 139.107 100.604 139.507C100.404 139.907 100.104 140.107 99.8038 140.107Z" fill="#02D5B4"/>
<path d="M137.204 123.307C146.151 123.307 153.404 120.397 153.404 116.807C153.404 113.217 146.151 110.307 137.204 110.307C128.257 110.307 121.004 113.217 121.004 116.807C121.004 120.397 128.257 123.307 137.204 123.307Z" fill="#5F4090"/>
<path d="M218.304 30.5071C199.204 36.6071 190.304 61.1072 185.804 67.7072C174.604 83.9072 146.504 86.0072 139.504 92.2072C132.904 98.0072 137.204 101.407 137.204 101.407C137.204 101.407 136.404 104.807 138.904 106.407C138.904 106.407 133.504 112.107 136.104 114.607C138.604 117.107 146.604 106.507 150.104 105.907L151.104 108.307C150.804 109.807 146.804 113.107 148.704 115.007C150.504 117.007 157.204 110.307 159.004 108.107C160.804 105.907 164.204 106.407 167.704 103.107C171.204 99.8072 187.204 100.807 198.004 89.6072C208.704 78.4072 224.904 44.8071 224.904 44.8071L218.304 30.5071Z" fill="white"/>
<path d="M149.404 116.007C148.704 116.007 148.204 115.707 147.904 115.407C146.204 113.607 147.904 111.307 149.104 109.607C149.504 109.107 149.904 108.507 150.104 108.107L149.504 106.607C148.204 107.207 146.204 109.007 144.404 110.607C140.804 113.807 137.404 116.907 135.404 114.907C132.904 112.407 136.204 108.007 137.704 106.307C136.104 104.707 136.204 102.407 136.304 101.507C135.804 101.007 135.104 99.9071 135.004 98.3071C135.004 96.1071 136.304 93.8071 138.904 91.5071C141.504 89.2071 146.904 87.5072 153.104 85.4072C164.204 81.8072 178.104 77.3072 185.104 67.1072C186.004 65.8072 187.104 63.6072 188.504 61.2072C193.804 51.3072 202.604 34.6072 218.004 29.7072L218.604 29.5071L225.404 44.6072L225.304 44.9072C224.604 46.3072 209.004 78.8072 198.304 89.9072C191.204 97.3072 181.904 99.4071 175.204 101.007C171.904 101.807 169.104 102.407 168.004 103.407C166.004 105.307 164.004 106.007 162.404 106.607C161.104 107.107 160.104 107.507 159.404 108.307C159.404 108.607 152.904 115.907 149.404 116.007C149.504 116.007 149.404 116.007 149.404 116.007ZM150.504 104.907L151.804 108.007V108.207C151.704 108.807 151.104 109.607 150.504 110.407C149.304 112.107 148.404 113.507 149.104 114.307C149.104 114.307 149.204 114.407 149.504 114.407C151.504 114.407 156.204 109.907 158.304 107.407C159.304 106.307 160.604 105.807 162.004 105.207C163.504 104.607 165.304 104.007 167.004 102.307C168.404 101.007 171.104 100.407 174.904 99.5071C181.504 98.0071 190.504 95.9071 197.304 88.8071C207.304 78.4071 222.204 47.9071 223.904 44.5071L218.004 31.3071C203.504 36.3071 195.104 52.3072 190.004 61.9072C188.604 64.5072 187.504 66.6071 186.604 68.0071C179.304 78.6071 165.104 83.2072 153.804 86.9072C147.804 88.9072 142.604 90.6072 140.204 92.7072C137.904 94.7072 136.704 96.6071 136.804 98.3071C136.804 99.8071 137.904 100.707 137.904 100.707L138.304 101.007L138.204 101.507C138.204 101.507 137.604 104.407 139.504 105.707L140.304 106.207L139.704 106.907C138.404 108.207 135.204 112.407 136.804 114.007C137.804 115.007 141.404 111.707 143.704 109.607C146.104 107.407 148.404 105.407 150.104 105.107L150.504 104.907Z" fill="#030047"/>
<path d="M203.004 75.4072C204.204 76.2072 205.404 77.0072 206.504 77.7072C215.604 63.5072 224.604 44.6072 224.604 44.6072L218.304 30.4072C201.304 35.8072 192.404 55.8071 187.504 64.8071C192.804 68.1071 197.904 72.0072 203.004 75.4072Z" fill="#02D5B4"/>
<path d="M206.804 78.8071L206.204 78.4072C205.004 77.6072 203.904 76.8072 202.704 76.1072C200.504 74.7072 198.404 73.2072 196.304 71.7072C193.404 69.6072 190.304 67.5072 187.204 65.6072L186.604 65.2072L186.904 64.6072C187.404 63.6072 188.004 62.6072 188.604 61.4072C193.904 51.5072 202.704 34.8072 218.104 29.9072L218.704 29.7072L225.504 44.8071L225.404 45.1072C225.304 45.3072 216.204 64.2072 207.204 78.2072L206.804 78.8071ZM188.504 64.6072C191.404 66.4072 194.304 68.4072 197.004 70.4072C199.104 71.9072 201.304 73.4071 203.404 74.8071C204.404 75.4071 205.304 76.1072 206.304 76.7072C214.504 63.8072 222.604 47.2072 223.804 44.7072L217.904 31.5071C203.404 36.5071 195.004 52.5072 189.904 62.1072C189.404 63.0072 189.004 63.8072 188.504 64.6072Z" fill="#02D5B4"/>
<path d="M144.504 101.107C142.304 102.107 140.504 103.607 138.904 105.407C138.504 105.907 139.204 106.607 139.604 106.107C141.104 104.307 142.904 102.907 145.004 101.907C145.604 101.707 145.104 100.807 144.504 101.107Z" fill="#030047"/>
<path d="M142.304 96.6072C140.204 97.2072 138.504 98.5071 137.304 100.307C137.004 100.807 137.804 101.307 138.204 100.807C139.204 99.2071 140.804 98.0071 142.604 97.5071C143.104 97.4071 142.904 96.4072 142.304 96.6072Z" fill="#030047"/>
<path d="M218.304 30.5071C208.204 33.9071 200.804 39.3071 203.004 68.3071C205.204 97.3071 204.804 106.207 204.804 106.207L269.804 97.0071C269.804 97.0071 250.904 19.6071 218.304 30.5071Z" fill="#02D5B4"/>
<path d="M204.104 107.107V106.207C204.104 106.107 204.404 97.0071 202.304 68.4071C200.104 38.4071 208.104 33.2071 218.104 29.8071L218.304 30.5071L218.104 29.8071C223.704 27.9071 229.304 28.5071 234.704 31.4071C257.404 43.9071 270.104 94.6071 270.604 96.8071L270.804 97.6072L204.104 107.107ZM224.604 30.2071C222.604 30.2071 220.604 30.5071 218.604 31.2071C208.904 34.5071 201.604 39.3071 203.804 68.3071C205.604 92.1071 205.704 102.507 205.604 105.407L268.904 96.4072C267.204 89.8072 254.604 44.1071 234.004 32.8071C230.904 31.1071 227.804 30.2071 224.604 30.2071Z" fill="#02D5B4"/>
<path d="M203.304 73.6072C202.904 73.6072 202.604 73.3072 202.604 72.9072L202.004 55.8071C202.004 55.4071 202.304 55.0071 202.704 55.0071C203.104 55.0071 203.504 55.3072 203.504 55.7072L204.104 72.8071C204.104 73.3071 203.804 73.6072 203.304 73.6072C203.404 73.6072 203.304 73.6072 203.304 73.6072Z" fill="#030047"/>
<path d="M278.504 71.2071C268.204 45.2071 242.704 22.8071 218.304 30.5071C218.304 30.5071 242.804 56.6072 253.604 70.9072C261.304 81.1072 267.604 101.907 271.004 114.107C264.404 121.307 266.904 135.107 268.304 135.507C272.304 136.807 272.804 128.007 272.804 128.007L274.304 127.207C274.904 130.807 275.504 135.307 277.104 136.607C279.504 138.507 281.904 135.707 281.904 135.707C284.804 137.007 287.704 134.907 287.704 134.907C301.304 134.007 288.804 97.2071 278.504 71.2071Z" fill="white"/>
<path d="M278.904 138.107C278.204 138.107 277.404 137.907 276.704 137.307C275.004 135.907 274.304 132.007 273.804 128.507L273.604 128.607C273.504 130.107 272.904 134.507 270.704 136.007C269.904 136.507 269.004 136.607 268.104 136.307C267.704 136.207 267.104 135.707 266.604 133.607C265.704 130.207 264.704 120.207 270.204 113.907C264.404 93.1071 258.704 78.8071 253.104 71.4071C242.504 57.3071 218.104 31.3072 217.904 31.1072L217.104 30.2071L218.204 29.8071C243.104 21.9071 268.804 44.5071 279.304 70.9071C292.804 104.807 297.304 125.607 292.804 132.807C291.704 134.507 290.104 135.507 288.004 135.707C287.304 136.107 284.804 137.507 282.204 136.607C281.304 137.407 280.204 138.107 278.904 138.107ZM274.904 126.107L275.104 127.707C275.604 130.807 276.204 135.107 277.604 136.207C279.404 137.607 281.304 135.507 281.304 135.407L281.704 135.007L282.204 135.207C284.604 136.307 287.204 134.507 287.204 134.507L287.404 134.407H287.604C289.304 134.307 290.604 133.507 291.404 132.107C294.304 127.407 294.304 113.107 277.804 71.6072C267.704 46.2072 243.404 24.4071 219.704 31.0071C224.104 35.7071 244.704 57.9071 254.204 70.5071C259.904 78.1071 265.804 92.7071 271.704 113.907L271.804 114.307L271.504 114.607C265.404 121.207 267.404 133.507 268.604 134.907C269.104 135.007 269.404 135.007 269.804 134.707C271.404 133.607 272.004 129.407 272.004 128.007V127.607L274.904 126.107Z" fill="#030047"/>
<path d="M257.204 60.5071C260.804 57.8071 264.104 54.9071 267.504 52.0071C254.904 35.5071 236.304 24.8071 218.304 30.5071C218.304 30.5071 237.804 51.2071 249.604 65.8071C252.204 64.1071 254.704 62.3071 257.204 60.5071Z" fill="#02D5B4"/>
<path d="M249.504 66.9072L249.104 66.4072C237.404 52.0072 218.004 31.3072 217.804 31.1072L217.004 30.2072L218.104 29.8071C234.604 24.5071 253.804 32.9071 268.104 51.5071L268.504 52.1072L268.004 52.6072C267.304 53.2072 266.604 53.8072 265.804 54.4072C263.204 56.7072 260.404 59.0072 257.604 61.1072C255.404 62.8072 253.004 64.5071 250.004 66.5071L249.504 66.9072ZM219.704 30.9072C223.504 35.0072 239.404 52.2072 249.804 64.9072C252.504 63.0072 254.704 61.5072 256.804 59.9072C259.604 57.8072 262.304 55.5071 264.904 53.3071C265.404 52.8071 266.004 52.4072 266.504 51.9072C255.804 38.2072 238.104 25.8072 219.704 30.9072Z" fill="#02D5B4"/>
<path d="M281.204 124.407C281.004 123.807 280.004 124.007 280.204 124.707C281.204 128.007 281.504 131.307 281.004 134.707C280.904 135.307 281.904 135.307 282.004 134.707C282.604 131.207 282.304 127.807 281.204 124.407Z" fill="#030047"/>
<path d="M287.304 122.907C287.104 122.307 286.204 122.507 286.304 123.207C287.204 126.607 287.404 130.107 287.104 133.607C287.004 134.207 288.004 134.207 288.104 133.607C288.504 129.907 288.204 126.407 287.304 122.907Z" fill="#030047"/>
<path d="M246.804 63.2072C246.604 63.2072 246.304 63.1072 246.204 62.9072C240.904 55.9072 238.604 52.5072 238.504 52.5072C238.304 52.2072 238.304 51.7072 238.704 51.5072C239.004 51.3072 239.504 51.3072 239.704 51.7072C239.704 51.7072 242.104 55.1072 247.304 62.1072C247.604 62.4072 247.504 62.9072 247.204 63.2072C247.104 63.1072 247.004 63.2072 246.804 63.2072Z" fill="#030047"/>
<path d="M222.104 13.7072C222.004 10.2072 218.504 8.10716 214.604 10.0072C214.004 10.3072 213.504 10.7072 212.904 11.2072C212.904 11.2072 212.904 11.2072 212.804 11.1072C207.304 5.30719 198.604 4.50718 193.404 9.40718C188.204 14.3072 189.404 22.2072 193.804 28.9072C197.904 34.9072 206.404 38.1072 213.204 30.6072C215.404 28.1072 216.704 24.8072 216.804 21.4072C220.504 20.3072 222.204 16.8072 222.104 13.7072Z" fill="white"/>
<path d="M203.244 31.7327C202.969 31.7187 202.734 31.931 202.72 32.2068C202.706 32.4826 202.918 32.7175 203.194 32.7314L203.244 31.7327ZM207.77 29.8444C207.911 29.6072 207.833 29.3003 207.596 29.159C207.359 29.0177 207.052 29.0955 206.91 29.3327L207.77 29.8444ZM203.194 32.7314C205.081 32.8267 206.683 31.6689 207.77 29.8444L206.91 29.3327C205.939 30.9637 204.636 31.8029 203.244 31.7327L203.194 32.7314Z" fill="#030047"/>
<path d="M204.404 35.8071C204.104 35.8071 203.904 35.8071 203.604 35.8071C199.604 35.5071 195.804 33.1072 193.304 29.4072C188.104 21.7072 188.004 13.7071 193.004 9.00715C198.404 3.90715 207.304 4.50714 213.004 10.3071C213.404 10.0071 213.904 9.70715 214.304 9.50715C216.404 8.40715 218.604 8.40717 220.304 9.40717C221.804 10.3072 222.804 11.9071 222.804 13.8071C222.904 16.8071 221.304 20.6072 217.504 22.1072C217.304 25.5072 216.004 28.7072 213.804 31.2072C210.504 34.9072 207.004 35.8071 204.404 35.8071ZM201.904 7.00715C199.004 7.00715 196.204 8.00715 194.004 10.0071C188.604 15.1071 190.904 23.1071 194.504 28.5071C196.804 31.9071 200.204 34.0072 203.704 34.2072C207.004 34.4072 210.104 33.0072 212.704 30.1072C214.804 27.8072 216.004 24.7072 216.104 21.4072V20.9072L216.604 20.7072C219.904 19.6072 221.404 16.3072 221.304 13.7072C221.304 12.4072 220.604 11.2072 219.504 10.6072C218.204 9.80719 216.504 9.90716 214.904 10.7072C214.404 11.0072 213.904 11.3071 213.304 11.8071L212.804 12.3071L212.304 11.8071C209.504 8.60714 205.604 7.00715 201.904 7.00715Z" fill="#030047"/>
<path d="M202.416 22.3027C202.642 21.7986 202.416 21.207 201.912 20.9813C201.408 20.7556 200.816 20.9812 200.59 21.4853C200.365 21.9894 200.59 22.581 201.094 22.8067C201.598 23.0324 202.19 22.8068 202.416 22.3027Z" fill="#030047"/>
<path d="M199.104 30.0071C197.804 28.2071 196.804 26.2072 196.004 24.1072C195.804 23.5072 196.704 23.1071 196.904 23.7071C197.604 25.7071 198.604 27.6071 199.804 29.4071C200.304 29.9071 199.504 30.5071 199.104 30.0071Z" fill="#030047"/>
<path d="M192.104 17.8071C195.104 16.7071 204.304 8.70716 207.804 14.5072C208.704 16.0072 208.704 17.2071 210.404 16.8071C212.004 16.1071 211.704 14.1072 211.704 14.1072C212.904 12.4072 213.304 10.7072 214.604 10.0072C218.204 4.20716 209.304 -2.99286 204.304 1.30714C204.304 1.30714 193.204 -1.39284 190.004 5.50716C184.304 7.80716 182.204 12.2071 183.404 16.3071C185.604 23.3071 192.104 17.8071 192.104 17.8071Z" fill="#030047"/>
<path d="M213.904 17.2072C213.804 14.8072 215.304 12.7071 217.604 12.0071C218.204 11.8071 218.604 12.8072 218.004 12.9072C216.204 13.4072 214.904 15.1071 215.004 17.0071C215.004 17.8071 214.004 17.9072 213.904 17.2072Z" fill="#030047"/>
<path d="M138.304 163.407C138.104 163.407 137.904 163.307 137.804 163.207L125.204 150.607C124.904 150.307 124.904 149.807 125.204 149.507C125.504 149.207 126.004 149.207 126.304 149.507L138.904 162.107C139.204 162.407 139.204 162.907 138.904 163.207C138.704 163.307 138.504 163.407 138.304 163.407Z" fill="#02D5B4"/>
<path d="M125.804 163.407C125.604 163.407 125.404 163.307 125.304 163.207C125.004 162.907 125.004 162.407 125.304 162.107L137.904 149.507C138.204 149.207 138.704 149.207 139.004 149.507C139.304 149.807 139.304 150.307 139.004 150.607L126.404 163.207C126.104 163.307 126.004 163.407 125.804 163.407Z" fill="#02D5B4"/>
</svg>
