<svg width="40" height="40" viewBox="0 0 40 40" fill="none" xmlns="http://www.w3.org/2000/svg">
<path d="M0.495972 38.8055C0.495972 39.0199 0.495972 39.2343 0.495972 39.4487H5.74865C5.74865 39.2343 5.74865 39.0199 5.74865 38.8055C5.74865 20.3139 20.8099 5.25268 39.3015 5.25268H39.3551C39.3551 3.43032 39.3551 1.66156 39.3551 0H39.3015C17.9156 0 0.495972 17.4196 0.495972 38.8055Z" fill="#5F4090"/>
<path d="M12.0197 38.8055C12.0197 39.0199 12.0197 39.2343 12.0197 39.4487H17.2723C17.2723 39.2343 17.2723 39.0199 17.2723 38.8055C17.2723 26.6386 27.1345 16.7764 39.3014 16.7764C39.355 16.7764 39.355 16.7764 39.4086 16.7764C39.4086 15.0076 39.4086 13.2925 39.4086 11.5237H39.355C24.2938 11.5237 12.0197 23.7979 12.0197 38.8055Z" fill="#FBAD18"/>
<path d="M23.597 38.8055C23.597 39.0199 23.597 39.2343 23.597 39.4487H28.8497C28.8497 39.2343 28.7961 39.0199 28.7961 38.8055C28.7961 33.0168 33.5128 28.3002 39.3015 28.3002C39.3551 28.3002 39.4087 28.3002 39.4087 28.3002C39.4087 26.6386 39.4087 24.8698 39.4087 23.0475C39.3551 23.0475 39.3551 23.0475 39.3015 23.0475C30.6185 23.1011 23.597 30.1225 23.597 38.8055Z" fill="#02D5B4"/>
</svg>
