<svg width="40" height="40" viewBox="0 0 40 40" fill="none" xmlns="http://www.w3.org/2000/svg">
<path d="M0.495972 39.2217C0.495972 39.4361 0.495972 39.6505 0.495972 39.8649H5.74865C5.74865 39.6505 5.74865 39.4361 5.74865 39.2217C5.74865 20.7301 20.8099 5.66885 39.3015 5.66885H39.3551C39.3551 3.84649 39.3551 2.07773 39.3551 0.416168H39.3015C17.9156 0.416168 0.495972 17.8358 0.495972 39.2217Z" fill="white"/>
<path d="M12.0197 39.2217C12.0197 39.4361 12.0197 39.6505 12.0197 39.8649H17.2724C17.2724 39.6505 17.2724 39.4361 17.2724 39.2217C17.2724 27.0548 27.1345 17.1926 39.3015 17.1926C39.3551 17.1926 39.3551 17.1926 39.4087 17.1926C39.4087 15.4238 39.4087 13.7087 39.4087 11.9399H39.3551C24.2938 11.9399 12.0197 24.214 12.0197 39.2217Z" fill="white"/>
<path d="M23.597 39.2217C23.597 39.4361 23.597 39.6505 23.597 39.8649H28.8497C28.8497 39.6505 28.7961 39.4361 28.7961 39.2217C28.7961 33.433 33.5128 28.7163 39.3015 28.7163C39.3551 28.7163 39.4087 28.7163 39.4087 28.7163C39.4087 27.0548 39.4087 25.286 39.4087 23.4636C39.3551 23.4636 39.3551 23.4636 39.3015 23.4636C30.6185 23.5172 23.597 30.5387 23.597 39.2217Z" fill="white"/>
</svg>
