<svg width="108" height="71" viewBox="0 0 108 71" fill="none" xmlns="http://www.w3.org/2000/svg">
<path d="M114.8 2.42518C89.31 -0.47748 62.4748 -1.36244 39.0737 9.08004C15.6726 19.5225 -3.16161 44.4075 1.0867 69.7172C3.52948 84.1951 12.7696 96.5137 21.691 108.16C33.9757 124.16 46.8269 140.655 64.6344 150.177C75.2906 155.877 87.1858 158.744 99.0811 160.797C122.978 164.797 147.406 165.576 171.479 163.027C181.605 161.965 192.615 159.806 199.164 151.983C203.448 146.85 205.112 140.089 206.67 133.576C214.175 101.788 221.433 67.3101 208.086 37.5048C202.669 25.3986 193.96 10.8146 180.224 8.0181C159.726 3.8411 135.864 4.83226 114.8 2.42518Z" fill="#FBAD18"/>
</svg>
